0.243243243243243
0.236842105263158
0.230769230769231
0.225
0.219546903261584
0.720046634158435
0.704535446206587
0.694248437663559
0.683309594207356
0.855704479261502
0.843242340271418
0.836368767178006
0.827899460983746
0.823090189003813
0.817151088652158
0.931606774744183
0.926823198252333
0.924188597288669
0.92088003709893
0.919073206282565
0.916736574819606
0.915506213748812
0.913867250087212
0.913027048116551
0.911961049398207
0.953291702683179
0.952635611828715
0.952324492178385
0.951918263693548
0.951818150916897
0.951732101520252
0.951774283481815
0.951866127794692
0.952081899540482
0.952425663509586
0.952680129642446
0.953251061995623
0.953660077638842
0.954236295265381
0.95485824174081
0.955672483324719
0.956353785784977
0.95735507588496
0.958063957639138
0.95922046721454
0.886167752498873
0.887388356177669
0.888326921327804
0.889688304792642
0.413511929361899
0.414221181402449
0.41472455894966
0.415500167884176
0.416061410068449
0.416898070635377
0.0107055755481881
0.010731850246021
0.0107494027411771
0.0107757836377301
0.0107946502434578
0.0108242632834419
0.010844103319898
0.0108751731363634
0.0108983057647752
0.0109318619560435
0.0109572294249956
0.0109944476955619
0.0110209083304389
0.0110638951849846
0.0110925586809155
0.0111356463569916
0.0111697746028129
0.0112167825785461
0.0112514293382778
0.0113049050548477
0.0113421074469328
0.0113999307106442
0.0114394063026691
0.0115025188298115
0.0115463308429949
0.0116107441339498
0.000116564652778302
0.000117322942700365
0.000117835340708809
0.000118596849005895
0.000119155192887559
0.000120005415074537
0.000120609835944851
0.000121523082481129
0.000122161195599568
0.000123190164434937
0.000123903178437274
0.00012504409218855
0.000125835130507445
0.000127026178627342
0.000127922172991497
0.000129316511018151
0.000130275285485976
0.000131716935614858
0.000132753283174483
0.000134320041743896
0.000135465932273273
0.000137168768540456
0.000138326122901562
0.00013990015177754
0.00014106212754362
0.000142566522730131
0.0001434933570795
0.000144752551958729
0.000145503064184205
0.000146279595525656
0.00014657214278824
0.000146731418946895
0.000146652558654
0.000146231680577041
